bsearch.obj
circshift.obj
diff.obj
ecgwindowedfilter.obj
eml_setop.obj
envelope.obj
extract.obj
extract_data.obj
extract_emxAPI.obj
extract_emxutil.obj
extract_initialize.obj
extract_rtwutil.obj
extract_terminate.obj
fft.obj
fft1.obj
find.obj
findpeaks.obj
ifft.obj
inflection_point.obj
interp1.obj
linspace.obj
max_slope.obj
mean.obj
nullAssignment.obj
pchip.obj
ppgannotation.obj
quickselect.obj
rtGetInf.obj
rtGetNaN.obj
rt_nonfinite.obj
sort.obj
sortIdx.obj
spline.obj
trapz.obj
unique.obj
vmedian.obj
